{
  "results": [
    {
      "indexUid": "test",
      "hits": [
        {
          "id": 4,
          "name": "Copper Ridge Lager",
          "price": 5.5,
          "color": "Amber",
          "_rankingScore": 1
        },
        {
          "id": 48,
          "name": "Golden Breeze Blonde",
          "price": 5.5,
          "color": "Blonde",
          "_rankingScore": 1
        },
        {
          "id": 28,
          "name": "Harvest Breeze Blonde",
          "price": 5.6,
          "color": "Blonde",
          "_rankingScore": 1
        },
        {
          "id": 38,
          "name": "Breezy Meadows Blonde",
          "price": 5.65,
          "color": "Blonde",
          "_rankingScore": 1
        },
        {
          "id": 14,
          "name": "Copper Dawn Ale",
          "price": 5.75,
          "color": "Amber",
          "_rankingScore": 1
        },
        {
          "id": 34,
          "name": "Golden Fields Lager",
          "price": 5.75,
          "color": "Amber",
          "_rankingScore": 1
        },
        {
          "id": 68,
          "name": "Sunlit Blonde Ale",
          "price": 5.75,
          "color": "Blonde",
          "_rankingScore": 1
        },
        {
          "id": 78,
          "name": "Golden Meadows Blonde",
          "price": 5.8,
          "color": "Blonde",
          "_rankingScore": 1
        },
        {
          "id": 58,
          "name": "Breezy Sunset Blonde",
          "price": 5.85,
          "color": "Blonde",
          "_rankingScore": 1
        },
        {
          "id": 108,
          "name": "Sunny Meadow Blonde",
          "price": 5.85,
          "color": "Blonde",
          "_rankingScore": 1
        },
        {
          "id": 88,
          "name": "Crisp Fields Blonde",
          "price": 5.9,
          "color": "Blonde",
          "_rankingScore": 1
        },
        {
          "id": 8,
          "name": "Hazy Meadow Blonde",
          "price": 5.95,
          "color": "Blonde",
          "_rankingScore": 1
        }
      ],
      "query": "",
      "processingTimeMs": 1,
      "hitsPerPage": 12,
      "page": 1,
      "totalPages": 10,
      "totalHits": 120,
      "facetDistribution": {
        "color": {
          "Amber": 36,
          "Black": 36,
          "Blonde": 25,
          "Brown": 11,
          "Red": 12
        },
        "price": {
          "7": 2,
          "9": 1,
          "5.5": 2,
          "5.6": 1,
          "5.65": 1,
          "5.75": 3,
          "5.8": 1,
          "5.85": 2,
          "5.9": 1,
          "5.95": 3,
          "6.05": 1,
          "6.1": 2,
          "6.15": 3,
          "6.2": 2,
          "6.25": 1,
          "6.3": 1,
          "6.35": 2,
          "6.4": 2,
          "6.45": 2,
          "6.5": 2,
          "6.55": 1,
          "6.6": 2,
          "6.65": 1,
          "6.7": 1,
          "6.75": 4,
          "6.8": 3,
          "6.85": 3,
          "6.9": 2,
          "6.95": 5,
          "7.05": 2,
          "7.1": 3,
          "7.15": 1,
          "7.25": 4,
          "7.3": 2,
          "7.35": 3,
          "7.4": 1,
          "7.45": 3,
          "7.5": 2,
          "7.55": 2,
          "7.6": 1,
          "7.65": 1,
          "7.8": 2,
          "7.9": 1,
          "8.4": 1,
          "8.55": 1,
          "8.6": 1,
          "8.7": 1,
          "8.75": 1,
          "8.8": 1,
          "8.85": 2,
          "8.9": 2,
          "8.95": 2,
          "9.05": 1,
          "9.1": 3,
          "9.15": 2,
          "9.2": 2,
          "9.25": 1,
          "9.3": 2,
          "9.35": 1,
          "9.4": 1,
          "9.45": 1,
          "9.5": 3,
          "9.55": 1,
          "9.6": 2,
          "9.7": 1,
          "9.75": 1,
          "9.8": 1
        }
      },
      "facetStats": {
        "price": {
          "min": 5.5,
          "max": 9.8
        }
      }
    }
  ]
}